Introduction
…
get_all_factors
finds all factor pairs for a given integer.

anomalyDetection also incorporates the pipe operator (%>%) from the magrittr package for streamlining function composition. To illustrate the functionality of anomalyDetection we will use the security_logs data that mimics common information that appears in security logs and comes with anomalyDetection.

library(dplyr)            # common data manipulations
library(tidyr)            # common data manipulations
library(tibble)           # turning output into convenient tibble
library(ggplot2)          # visualizations
library(anomalyDetection)

security_logs
## # A tibble: 300 x 10
##    Device_Vendor Device_Product Device_Action Src_IP    Dst_IP    Src_Port
##    <chr>         <chr>          <chr>         <chr>     <chr>        <int>
##  1 McAfee        NSP            Attempt       223.70.1… 32.73.26…      135
##  2 CISCO         ASA            Failure       174.110.… 219.142.…       80
##  3 IBM           SNIPS          Success       174.110.… 145.114.…       80
##  4 McAfee        NSP            Success       227.12.1… 151.194.…       21
##  5 Juniper       SRX            Success       28.9.24.… 145.114.…      135
##  6 McAfee        NSP            Success       28.9.24.… 145.114.…       80
##  7 McAfee        NSP            Attempt       28.9.24.… 56.137.1…       80
##  8 McAfee        ePO            Attempt       223.70.1… 151.194.…       25
##  9 McAfee        ePO            Attempt       174.110.… 151.194.…       25
## 10 CISCO         ASA            Attempt       227.12.1… 56.137.1…       25
## # ... with 290 more rows, and 4 more variables: Dst_Port <int>,
## #   Protocol <chr>, Country_Src <chr>, Bytes_TRF <int>

State Vector Creation

To apply the statistical methods that we’ll see in the sections that follow, we employ the tabulated vector approach. This approach transforms the security log data into unique counts of data attributes based on pre-defined time blocks. Therefore, as each time block is generated, the categorical fields are separated by their levels and a count of occurrences for each level are recorded into a vector. All numerical fields, such as bytes in and bytes out, are recorded as a summation within the time block. The result is what we call a “state vector matrix”.

Thus, for our security_logs data we can create our state vector matrix based on our data being divided into 10 time blocks. What results is the summary of instances for each categorical level in our data for each time block. Consequently, row one represents the first time block and there were 2 instances of CISCO as the device vendor, 1 instances of IBM, etc.

tabulate_state_vector(security_logs, 10)
## Some variables contain more than 50 levels. Only the 10 most popular levels of these variables will be tabulated.
## # A tibble: 30 x 54
##      ASA Attempt Bytes_TRF_102 Bytes_TRF_120 Bytes_TRF_160 Bytes_TRF_200
##    <dbl>   <dbl>         <dbl>         <dbl>         <dbl>         <dbl>
##  1  2.00    5.00          0             1.00          1.00          0   
##  2  0       4.00          1.00          0             0             1.00
##  3  2.00    3.00          0             0             1.00          0   
##  4  5.00    0             0             1.00          0             0   
##  5  3.00    3.00          0             0             0             0   
##  6  2.00    4.00          0             0             0             0   
##  7  2.00    3.00          1.00          0             0             0   
##  8  3.00    6.00          0             0             0             1.00
##  9  0       4.00          0             1.00          0             0   
## 10  2.00    3.00          1.00          0             0             0   
## # ... with 20 more rows, and 48 more variables: Bytes_TRF_208 <dbl>,
## #   Bytes_TRF_60 <dbl>, Bytes_TRF_64 <dbl>, Bytes_TRF_70 <dbl>,
## #   Bytes_TRF_72 <dbl>, Bytes_TRF_80 <dbl>, Bytes_TRF_90 <dbl>,
## #   CISCO <dbl>, China <dbl>, Dst_IP_145.114.4.203 <dbl>,
## #   Dst_IP_151.194.233.198 <dbl>, Dst_IP_219.142.109.8 <dbl>,
## #   Dst_IP_32.73.26.223 <dbl>, Dst_IP_56.137.121.203 <dbl>,
## #   Dst_Port_20000 <dbl>, Dst_Port_25 <dbl>, Dst_Port_593 <dbl>,
## #   Dst_Port_80 <dbl>, Dst_Port_90 <dbl>, Failure <dbl>, Firewall <dbl>,
## #   IBM <dbl>, India <dbl>, Juniper <dbl>, Korea <dbl>, McAfee <dbl>,
…
Multicollinearity Adjustment

Prior to proceeding with any multivariate statistical analyses we should inspect the state vector for multicollinearity, to avoid issues such as matrix singularity, rank deficiency, and strong correlation values, and remove any columns that pose an issue. We can use mc_adjust to handle issues with multi-collinearity by first removing any columns whose variance is close to or less than a minimum level of variance (min_var). Then, it removes linearly dependent columns. Finally, it removes any columns that have a high absolute correlation value equal to or greater than max_cor.

(state_vec <- security_logs %>%
  tabulate_state_vector(10) %>%
  mc_adjust())
## Some variables contain more than 50 levels. Only the 10 most popular levels of these variables will be tabulated.
## # A tibble: 30 x 49
##      ASA Attempt Bytes_TRF_102 Bytes_TRF_120 Bytes_TRF_160 Bytes_TRF_200
##    <dbl>   <dbl>         <dbl>         <dbl>         <dbl>         <dbl>
##  1  2.00    5.00          0             1.00          1.00          0   
##  2  0       4.00          1.00          0             0             1.00
##  3  2.00    3.00          0             0             1.00          0   
##  4  5.00    0             0             1.00          0             0   
##  5  3.00    3.00          0             0             0             0   
##  6  2.00    4.00          0             0             0             0   
##  7  2.00    3.00          1.00          0             0             0   
##  8  3.00    6.00          0             0             0             1.00
##  9  0       4.00          0             1.00          0             0   
## 10  2.00    3.00          1.00          0             0             0   
## # ... with 20 more rows, and 43 more variables: Bytes_TRF_208 <dbl>,
## #   Bytes_TRF_60 <dbl>, Bytes_TRF_64 <dbl>, Bytes_TRF_70 <dbl>,
## #   Bytes_TRF_72 <dbl>, Bytes_TRF_80 <dbl>, Bytes_TRF_90 <dbl>,
## #   China <dbl>, Dst_IP_145.114.4.203 <dbl>, Dst_IP_151.194.233.198 <dbl>,
## #   Dst_IP_219.142.109.8 <dbl>, Dst_IP_32.73.26.223 <dbl>,
## #   Dst_IP_56.137.121.203 <dbl>, Dst_Port_20000 <dbl>, Dst_Port_25 <dbl>,
## #   Dst_Port_593 <dbl>, Dst_Port_80 <dbl>, Dst_Port_90 <dbl>,
## #   Failure <dbl>, Firewall <dbl>, IBM <dbl>, India <dbl>, Juniper <dbl>,
## #   Korea <dbl>, McAfee <dbl>, NSP <dbl>, Netherlands <dbl>, Russia <dbl>,
…
Multivariate Statistical Analyses

With our data adjusted for multicollinearity we can now proceed with multivariate analyses to identify anomalies. First we’ll use the mahalanobis_distance function to compare the distance between each observation by its distance from the data mean, independent of scale. This is computed as

\[MD = \sqrt{(x - \bar{x})C^{-1}(x-\bar{x})} \tag{1}\]

where \(x\) is a vector of \(p\) observations, \(x=(x_1, \dots, x_p)\), \(\bar{x}\) is the mean vector of the data, \(\bar{x}=(\bar{x}_1, \dots, \bar{x}_p)\), and \(C^{-1}\) is the inverse data covariance matrix.

Here, we include output = "both" to return both the Mahalanobis distance and the absolute breakdown distances and normalize = TRUE so that we can compare relative magnitudes across our data.

state_vec %>%
  mahalanobis_distance("both", normalize = TRUE) %>%
  as_tibble
## # A tibble: 30 x 50
##       MD  ASA_BD Attempt_BD Bytes_TRF_102_BD Bytes_TRF_120_BD
##    <dbl>   <dbl>      <dbl>            <dbl>            <dbl>
##  1  28.0 0.00554    0.0109            0.0964           0.440 
##  2  28.0 0.0247     0.00378           0.627            0.0879
##  3  28.0 0.00554    0.00330           0.0964           0.0879
##  4  28.0 0.0508     0.0245            0.0964           0.440 
##  5  28.0 0.0206     0.00330           0.0964           0.0879
##  6  28.0 0.00554    0.00378           0.0964           0.0879
##  7  28.0 0.00554    0.00330           0.627            0.0879
##  8  28.0 0.0206     0.0179            0.0964           0.0879
##  9  28.0 0.0247     0.00378           0.0964           0.440 
## 10  28.0 0.00554    0.00330           0.627            0.0879
## # ... with 20 more rows, and 45 more variables: Bytes_TRF_160_BD <dbl>,
## #   Bytes_TRF_200_BD <dbl>, Bytes_TRF_208_BD <dbl>, Bytes_TRF_60_BD <dbl>,
## #   Bytes_TRF_64_BD <dbl>, Bytes_TRF_70_BD <dbl>, Bytes_TRF_72_BD <dbl>,
## #   Bytes_TRF_80_BD <dbl>, Bytes_TRF_90_BD <dbl>, China_BD <dbl>,
## #   Dst_IP_145.114.4.203_BD <dbl>, Dst_IP_151.194.233.198_BD <dbl>,
## #   Dst_IP_219.142.109.8_BD <dbl>, Dst_IP_32.73.26.223_BD <dbl>,
## #   Dst_IP_56.137.121.203_BD <dbl>, Dst_Port_20000_BD <dbl>,
## #   Dst_Port_25_BD <dbl>, Dst_Port_593_BD <dbl>, Dst_Port_80_BD <dbl>,
## #   Dst_Port_90_BD <dbl>, Failure_BD <dbl>, Firewall_BD <dbl>,
…
For easy access to these results we can use the factor_analysis_results parsing function. The factor_analysis_results will parse the results either by their list name or by location. For instance to extract the rotated factor scores you can use factor_analysis_results(data, results = fa_scores_rotated) or factor_analysis_results(data, results = 4) as demonstrated below.

state_vec %>%
  horns_curve() %>%
  factor_analysis(state_vec, hc_points = .) %>%
  factor_analysis_results(4) %>%
  as_tibble
## # A tibble: 30 x 24
##         V1     V2      V3      V4      V5      V6        V7     V8      V9
##      <dbl>  <dbl>   <dbl>   <dbl>   <dbl>   <dbl>     <dbl>  <dbl>   <dbl>
##  1  0.489   1.39  -1.09    0.0363 -0.0210 -0.0931  2.22     -0.842 -0.417 
##  2  0.989   0.186 -0.217  -0.728  -0.702   0.390   0.336     2.32   1.90  
##  3 -0.926  -0.367  0.380   0.778   0.780   0.491   3.13     -0.143  0.386 
##  4 -0.608  -1.93   0.506   1.51   -0.224   1.38   -0.497     0.128 -0.135 
##  5  1.08   -0.795  1.26    0.499   0.135  -0.493   0.579    -0.147 -0.279 
##  6  0.0910  0.155  0.657  -1.64    0.758  -0.585   0.000996  1.17  -0.120 
##  7 -2.64   -0.207  1.54   -0.227   1.80   -1.40    0.0187   -0.581 -0.890 
##  8 -0.908   1.37   0.0891 -0.722  -0.562   0.407   0.110    -1.47   2.69  
##  9 -1.58    0.398  0.677   1.30   -0.576  -0.830   0.794     1.35   0.0825
## 10  1.35   -0.590 -0.671   0.0861  0.669  -0.435  -0.734    -0.903 -0.537 
## # ... with 20 more rows, and 15 more variables: V10 <dbl>, V11 <dbl>,
## #   V12 <dbl>, V13 <dbl>, V14 <dbl>, V15 <dbl>, V16 <dbl>, V17 <dbl>,
## #   V18 <dbl>, V19 <dbl>, V20 <dbl>, V21 <dbl>, V22 <dbl>, V23 <dbl>,
## #   V24 <dbl>
…
For easy access to these results we can use the principal_components_result parsing function. The principal_components_result will parse the results either by their list name or by location. For instance to extract the computed component scores as outlined in Eq. 8 you can use principal_components_result(data, results = pca_rotated) or principal_components_result(data, results = 3) as demonstrated below.

state_vec %>%
  principal_components() %>%
  principal_components_result(pca_rotated) %>%
  as_tibble
## # A tibble: 30 x 30
##       PC1    PC2    PC3    PC4    PC5    PC6    PC7    PC8     PC9    PC10
##     <dbl>  <dbl>  <dbl>  <dbl>  <dbl>  <dbl>  <dbl>  <dbl>   <dbl>   <dbl>
##  1  4.71  -2.07   0.733 -2.41   2.30  -1.05   2.32  -0.785 -1.07    1.87  
##  2  1.09  -3.01  -2.10  -0.496 -0.318  4.56  -1.75   1.97  -2.68   -2.34  
##  3  0.724 -3.42  -0.519  2.67  -0.156 -1.30   0.786 -0.641 -1.24   -0.0424
##  4 -4.89   3.74  -3.25   2.02  -1.47   0.738 -1.25  -0.772  2.32    2.95  
##  5  1.35   2.90  -2.05   0.582  1.32   1.03   0.598 -3.01   0.485  -0.942 
##  6  2.85   0.678 -0.751 -0.977  0.949 -0.258  3.04  -0.177  1.34   -0.570 
##  7 -1.59   2.65   0.328  3.16   4.04  -2.35  -2.54   0.235 -0.787  -1.79  
##  8 -1.73  -3.82   0.784 -0.271  1.90  -1.59   0.487  1.16  -0.0659  3.19  
##  9  1.42   1.34   0.217  3.43  -2.83   2.58  -1.78   1.33  -2.29   -0.688 
## 10  2.95  -3.00  -5.72  -0.248  0.478 -1.65  -1.06  -3.37   0.664  -0.492 
## # ... with 20 more rows, and 20 more variables: PC11 <dbl>, PC12 <dbl>,
## #   PC13 <dbl>, PC14 <dbl>, PC15 <dbl>, PC16 <dbl>, PC17 <dbl>,
## #   PC18 <dbl>, PC19 <dbl>, PC20 <dbl>, PC21 <dbl>, PC22 <dbl>,
## #   PC23 <dbl>, PC24 <dbl>, PC25 <dbl>, PC26 <dbl>, PC27 <dbl>,
## #   PC28 <dbl>, PC29 <dbl>, PC30 <dbl>
…
